[
  {
    "id": 33971,
    "citizen_number": 3120100030941,
    "fullname": "นายธัญวัฒน์  ทองสุก",
    "department": "ช่างไฟฟ้า",
    "startdate": "16/11/2018",
    "enddate": "30/11/2018"
  },
  {
    "id": 33972,
    "citizen_number": 3779800216497,
    "fullname": "นายยุทธกร  ไชยสิงห์",
    "department": "ช่างไฟฟ้า",
    "startdate": "17/12/2018",
    "enddate": "21/12/2018"
  },
  {
    "id": 33970,
    "citizen_number": 3180600131452,
    "fullname": "นายชนิศ  ศรีเดช",
    "department": "ช่างไฟฟ้า",
    "startdate": "10/8/2018",
    "enddate": "15/02/2019"
  },
  {
    "id": 19199,
    "citizen_number": 3180600140320,
    "fullname": "นายสุภาษณ์ การภักดี",
    "department": "ช่างไฟฟ้ากำลัง",
    "startdate": "29/10/2018",
    "enddate": "11/2/2018"
  },
  {
    "id": 19199,
    "citizen_number": 3180600140320,
    "fullname": "นายสุภาษณ์ การภักดี",
    "department": "ช่างไฟฟ้ากำลัง",
    "startdate": "21/1/2019",
    "enddate": "25/1/2019"
  },
  {
    "id": 19204,
    "citizen_number": 3449900090056,
    "fullname": "นายธรรมนูญ บุญปราการ",
    "department": "ช่างไฟฟ้ากำลัง",
    "startdate": "15/10/2018",
    "enddate": "19/10/2018"
  },
  {
    "id": 19204,
    "citizen_number": 3449900090056,
    "fullname": "นายธรรมนูญ บุญปราการ",
    "department": "ช่างไฟฟ้ากำลัง",
    "startdate": "1/7/2019",
    "enddate": "1/11/2019"
  },
  {
    "id": 19187,
    "citizen_number": 3170300230340,
    "fullname": "นายธน สังข์ทอง",
    "department": "ช่างไฟฟ้ากำลัง",
    "startdate": "22/10/2018",
    "enddate": "26/10/2018"
  },
  {
    "id": 19187,
    "citizen_number": 3170300230340,
    "fullname": "นายธน สังข์ทอง",
    "department": "ช่างไฟฟ้ากำลัง",
    "startdate": "14/1/2019",
    "enddate": "18/1/2019"
  },
  {
    "id": 19192,
    "citizen_number": 3600700599621,
    "fullname": "นางสาวสุวรรณี งามนิล",
    "department": "ช่างไฟฟ้ากำลัง",
    "startdate": "19/11/2018",
    "enddate": "23/11/2018"
  },
  {
    "id": 19192,
    "citizen_number": 3600700599621,
    "fullname": "นางสาวสุวรรณี งามนิล",
    "department": "ช่างไฟฟ้ากำลัง",
    "startdate": "2/11/2019",
    "enddate": "15/2/2019"
  },
  {
    "id": 19180,
    "citizen_number": 2521000002383,
    "fullname": "นายอนุสรณ์ วงค์ปิ่นจันทร์",
    "department": "ช่างไฟฟ้ากำลัง",
    "startdate": "12/10/2018",
    "enddate": "14/12/2018"
  },
  {
    "id": 22373,
    "citizen_number": 3180100407483,
    "fullname": "นางชนันท์วัลย์  ศุภภูดิสโสภณ",
    "department": "ช่างไฟฟ้ากำลัง",
    "startdate": "10/8/2018",
    "enddate": "15/02/2019"
  },
  {
    "id": 19205,
    "citizen_number": 3830100348367,
    "fullname": "นายสมโภชน์ ตามสายลม",
    "department": "ช่างไฟฟ้ากำลัง",
    "startdate": "11/12/2019",
    "enddate": "16/11/2019"
  },
  {
    "id": 19205,
    "citizen_number": 3830100348367,
    "fullname": "นายสมโภชน์ ตามสายลม",
    "department": "ช่างไฟฟ้ากำลัง",
    "startdate": "2/4/2018",
    "enddate": "2/8/2018"
  },
  {
    "id": 19193,
    "citizen_number": 3189900027730,
    "fullname": "นายวิทยา ชูชื่น",
    "department": "ช่างไฟฟ้ากำลัง",
    "startdate": "10/8/2018",
    "enddate": "10/12/2018"
  },
  {
    "id": 19193,
    "citizen_number": 3189900027730,
    "fullname": "นายวิทยา ชูชื่น",
    "department": "ช่างไฟฟ้ากำลัง",
    "startdate": "31/12/2019",
    "enddate": "1/4/2019"
  },
  {
    "id": 19186,
    "citizen_number": 3180400407233,
    "fullname": "นางปรารถนา บุ้งทิม",
    "department": "ช่างไฟฟ้ากำลัง",
    "startdate": "11/5/2018",
    "enddate": "11/9/2018"
  },
  {
    "id": 19186,
    "citizen_number": 3180400407233,
    "fullname": "นางปรารถนา บุ้งทิม",
    "department": "ช่างไฟฟ้ากำลัง",
    "startdate": "28/1/2018",
    "enddate": "2/1/2018"
  },
  {
    "id": 19206,
    "citizen_number": 1600100339495,
    "fullname": "นายพีรภัทร ฉัตรชัยวัฒนา",
    "department": "ช่างไฟฟ้ากำลัง",
    "startdate": "24/12/2018",
    "enddate": "28/12/2018"
  },
  {
    "id": 33954,
    "citizen_number": 1619900128641,
    "fullname": "นายปริญญา  ศรีวิชาสร้อย",
    "department": "ช่างยนต์",
    "startdate": "15/5/2018",
    "enddate": "21/9/2019"
  },
  {
    "id": 21285,
    "citizen_number": 3189900016991,
    "fullname": "นายณฤทธิ์  อุ่มสุข",
    "department": "ช่างยนต์",
    "startdate": "15/10/2018",
    "enddate": "19/10/2018"
  },
  {
    "id": 33959,
    "citizen_number": 3859900039120,
    "fullname": "นายประสิทธิ์  ถือแก้ว",
    "department": "ช่างยนต์",
    "startdate": "11/12/2018",
    "enddate": "16/11/2018"
  },
  {
    "id": 33964,
    "citizen_number": 3180500011293,
    "fullname": "นายนเรนทร์  สมสมัย",
    "department": "ช่างยนต์",
    "startdate": "31/12/2018",
    "enddate": "1/4/2019"
  },
  {
    "id": 33969,
    "citizen_number": 1189900076459,
    "fullname": "นายกวีศักดิ์  เทียนชัย",
    "department": "ช่างยนต์",
    "startdate": "2/4/2019",
    "enddate": "2/8/2019"
  },
  {
    "id": 21283,
    "citizen_number": 5610100017580,
    "fullname": "นายชำนาญ แก้วจงประสิทธิ์",
    "department": "ช่างยนต์",
    "startdate": "10/8/2018",
    "enddate": "10/12/2018"
  },
  {
    "id": 21283,
    "citizen_number": 5610100017580,
    "fullname": "นายชำนาญ แก้วจงประสิทธิ์",
    "department": "ช่างยนต์",
    "startdate": "22/10/2018",
    "enddate": "26/10/2018"
  },
  {
    "id": 33957,
    "citizen_number": 1180600064589,
    "fullname": "นายอลงกต  ดำนิล",
    "department": "ช่างยนต์",
    "startdate": "10/8/2018",
    "enddate": "15/02/2019"
  },
  {
    "id": 33962,
    "citizen_number": 3100100952023,
    "fullname": "นายวิทยา อยู่ภาโส",
    "department": "ช่างยนต์",
    "startdate": "17/12/2018",
    "enddate": "21/12/2018"
  },
  {
    "id": 33967,
    "citizen_number": 3180100533578,
    "fullname": "นายไพโรจน์  บัณฑิตย์",
    "department": "ช่างยนต์",
    "startdate": "21/1/2019",
    "enddate": "25/1/2019"
  },
  {
    "id": 33955,
    "citizen_number": 3610100105164,
    "fullname": "นายสนธยา  เสือน้อย",
    "department": "ช่างยนต์",
    "startdate": "10/8/2018",
    "enddate": "15/02/2019"
  },
  {
    "id": 21286,
    "citizen_number": 3180600135105,
    "fullname": "นายปรัชญา  โพธี",
    "department": "ช่างยนต์",
    "startdate": "2/11/2019",
    "enddate": "15/2/2019"
  },
  {
    "id": 33960,
    "citizen_number": 3180600191862,
    "fullname": "นายสัมฤทธิ์  แดงกรัด",
    "department": "ช่างยนต์",
    "startdate": "26/11/2018",
    "enddate": "30/11/2018"
  },
  {
    "id": 33965,
    "citizen_number": 3610100062694,
    "fullname": "นายธนากรณ์  จินดารัตน์",
    "department": "ช่างยนต์",
    "startdate": "1/7/2019",
    "enddate": "1/11/2019"
  },
  {
    "id": 21284,
    "citizen_number": 3610700329381,
    "fullname": "นายกวีศักดิ์  แป้นขาว",
    "department": "ช่างยนต์",
    "startdate": "19/11/2018",
    "enddate": "23/11/2018"
  },
  {
    "id": 33958,
    "citizen_number": 5640690009122,
    "fullname": "นายศรัณย์ภัทร  บุญญา",
    "department": "ช่างยนต์",
    "startdate": "11/5/2018",
    "enddate": "11/9/2018"
  },
  {
    "id": 33963,
    "citizen_number": 1189800002623,
    "fullname": "นายสุเทพ  อินอุดม",
    "department": "ช่างยนต์",
    "startdate": "24/12/2018",
    "enddate": "28/12/2018"
  },
  {
    "id": 33968,
    "citizen_number": 3601000310778,
    "fullname": "นายเอนกนัฐ  เรือนไทย",
    "department": "ช่างยนต์",
    "startdate": "28/1/2018",
    "enddate": "2/1/2019"
  },
  {
    "id": 33956,
    "citizen_number": 1409900221197,
    "fullname": "นายศราวุธ  แพ่งประสิทธิ์",
    "department": "ช่างยนต์",
    "startdate": "10/8/2018",
    "enddate": "15/02/2019"
  },
  {
    "id": 21287,
    "citizen_number": 3600700834175,
    "fullname": "นายเสริมศักดิ์  สุวรรณนาลัย",
    "department": "ช่างยนต์",
    "startdate": "29/10/2018",
    "enddate": "12/2/2018"
  },
  {
    "id": 33961,
    "citizen_number": 3170400108708,
    "fullname": "นายกิติศักดิ์  โพธิ์กระจ่าง",
    "department": "ช่างยนต์",
    "startdate": "12/10/2018",
    "enddate": "14/12/2018"
  },
  {
    "id": 33966,
    "citizen_number": 3450101298880,
    "fullname": "ว่าที่ ร.ต.ธวัชชัย  พาดฤทธิ์",
    "department": "ช่างยนต์",
    "startdate": "14/1/2019",
    "enddate": "18/1/2019"
  },
  {
    "id": 22369,
    "citizen_number": 3709900391479,
    "fullname": "นางสาวภาวิณี  ปานันตา",
    "department": "ช่างอิเล็กทรอนิกส์",
    "startdate": "12/10/2018",
    "enddate": "14/12/2018"
  },
  {
    "id": 33976,
    "citizen_number": 3180100491328,
    "fullname": "นายศักดิ์ดา  ฉ่ำช้างทอง",
    "department": "ช่างอิเล็กทรอนิกส์",
    "startdate": "11/12/2018",
    "enddate": "16/11/2018"
  },
  {
    "id": 33976,
    "citizen_number": 3180100491328,
    "fullname": "นายศักดิ์ดา  ฉ่ำช้างทอง",
    "department": "ช่างอิเล็กทรอนิกส์",
    "startdate": "2/4/2019",
    "enddate": "2/8/2019"
  },
  {
    "id": 33974,
    "citizen_number": 3170200101971,
    "fullname": "นายสุทัศน์ ศุภนคร",
    "department": "ช่างอิเล็กทรอนิกส์",
    "startdate": "15/10/2018",
    "enddate": "19/10/2018"
  },
  {
    "id": 33974,
    "citizen_number": 3170200101971,
    "fullname": "นายสุทัศน์ ศุภนคร",
    "department": "ช่างอิเล็กทรอนิกส์",
    "startdate": "1/7/2019",
    "enddate": "1/11/2019"
  },
  {
    "id": 33979,
    "citizen_number": 1309900043427,
    "fullname": "นายฉัตรชัย  โตวราธรรม",
    "department": "ช่างอิเล็กทรอนิกส์",
    "startdate": "17/12/2018",
    "enddate": "21/12/2018"
  },
  {
    "id": 33977,
    "citizen_number": 3180200309459,
    "fullname": "นายประเสริฐศักดิ์  ศิริภาพ",
    "department": "ช่างอิเล็กทรอนิกส์",
    "startdate": "19/11/2018",
    "enddate": "23/11/2018"
  },
  {
    "id": 33977,
    "citizen_number": 3180200309459,
    "fullname": "นายประเสริฐศักดิ์  ศิริภาพ",
    "department": "ช่างอิเล็กทรอนิกส์",
    "startdate": "19/3/2018",
    "enddate": "7/9/2018"
  },
  {
    "id": 19173,
    "citizen_number": 3180100279761,
    "fullname": "นายอนุกูล เชื้อน้อย",
    "department": "ช่างอิเล็กทรอนิกส์",
    "startdate": "2/11/2018",
    "enddate": "15/02/2019"
  },
  {
    "id": 19178,
    "citizen_number": 3609700042463,
    "fullname": "นายสมศักดิ์ เหมาะสมัย",
    "department": "ช่างอิเล็กทรอนิกส์",
    "startdate": "29/10/2018",
    "enddate": "11/2/2018"
  },
  {
    "id": 19178,
    "citizen_number": 3609700042463,
    "fullname": "นายสมศักดิ์ เหมาะสมัย",
    "department": "ช่างอิเล็กทรอนิกส์",
    "startdate": "21/1/2019",
    "enddate": "25/1/2019"
  },
  {
    "id": 19166,
    "citizen_number": 3740100531049,
    "fullname": "นายวัชระ นิเกศรี",
    "department": "ช่างอิเล็กทรอนิกส์",
    "startdate": "22/10/2018",
    "enddate": "26/10/2018"
  },
  {
    "id": 19166,
    "citizen_number": 3740100531049,
    "fullname": "นายวัชระ นิเกศรี",
    "department": "ช่างอิเล็กทรอนิกส์",
    "startdate": "14/1/2019",
    "enddate": "18/1/2019"
  },
  {
    "id": 33975,
    "citizen_number": 3160101127964,
    "fullname": "นายจิรพงษ์  ทองคำรัตน์",
    "department": "ช่างอิเล็กทรอนิกส์",
    "startdate": "11/5/2018",
    "enddate": "11/9/2018"
  },
  {
    "id": 33975,
    "citizen_number": 3160101127964,
    "fullname": "นายจิรพงษ์  ทองคำรัตน์",
    "department": "ช่างอิเล็กทรอนิกส์",
    "startdate": "28/1/2018",
    "enddate": "1/1/2018"
  },
  {
    "id": 33980,
    "citizen_number": 3180100237081,
    "fullname": "นางวิไลวรรณ์  จันทร์จิตร",
    "department": "ช่างอิเล็กทรอนิกส์",
    "startdate": "24/12/2018",
    "enddate": "28/12/2018"
  },
  {
    "id": 33973,
    "citizen_number": 3450600540902,
    "fullname": "นายธนูศักดิ์  อรุณไพร",
    "department": "ช่างอิเล็กทรอนิกส์",
    "startdate": "10/8/2018",
    "enddate": "10/12/2018"
  },
  {
    "id": 33973,
    "citizen_number": 3450600540902,
    "fullname": "นายธนูศักดิ์  อรุณไพร",
    "department": "ช่างอิเล็กทรอนิกส์",
    "startdate": "31/12/2019",
    "enddate": "1/4/2019"
  },
  {
    "id": 33978,
    "citizen_number": 3180100024401,
    "fullname": "นางณัฐสิมา  ตามสายลม",
    "department": "ช่างอิเล็กทรอนิกส์",
    "startdate": "26/11/2018",
    "enddate": "30/11/2018"
  }
]
