[
  {
    "fullname": "นายณฤทธิ์  อุ่มสุข",
    "citizen_number": 3189900016991,
    "dept": "ช่างยนต์"
  },
  {
    "fullname": "นายปริญญา  ศรีวิชาสร้อย",
    "citizen_number": 1619900128641,
    "dept": "ช่างยนต์"
  },
  {
    "fullname": "นายสนธยา  เสือน้อย",
    "citizen_number": 3610100105164,
    "dept": "ช่างยนต์"
  },
  {
    "fullname": "นายศราวุธ  แพ่งประสิทธิ์",
    "citizen_number": 1409900221197,
    "dept": "ช่างยนต์"
  },
  {
    "fullname": "นายอลงกต  ดำนิล",
    "citizen_number": 1180600064589,
    "dept": "ช่างยนต์"
  },
  {
    "fullname": "ว่าที่  ร.ต.อนุกูล เชื้อน้อย",
    "citizen_number": 3180100279761,
    "dept": "ช่างอิเล็กทรอนิกส์"
  },
  {
    "fullname": "นายชำนาญ  แก้วจงประสิทธิ์",
    "citizen_number": 5610100017580,
    "dept": "ช่างยนต์"
  },
  {
    "fullname": "นายเสริมศักดิ์  สุวรรณาลัย",
    "citizen_number": 3600700834175,
    "dept": "ช่างยนต์"
  },
  {
    "fullname": "นายศรัณย์ภัทร  บุญญา",
    "citizen_number": 5640690009122,
    "dept": "ช่างยนต์"
  },
  {
    "fullname": "นายประสิทธิ์  ถือแก้ว",
    "citizen_number": 3859900039120,
    "dept": "ช่างยนต์"
  },
  {
    "fullname": "นายกวีศักดิ์  แป้นข้าว",
    "citizen_number": 3610700329381,
    "dept": "ช่างยนต์"
  },
  {
    "fullname": "นายสัมฤทธิ์  แดงกรัด",
    "citizen_number": 3180600191862,
    "dept": "ช่างยนต์"
  },
  {
    "fullname": "นายกิติศักดิ์  โพธิ์กระจ่าง",
    "citizen_number": 3170400108708,
    "dept": "ช่างยนต์"
  },
  {
    "fullname": "นายวิทยา อยู่ภาโส",
    "citizen_number": 3100100952023,
    "dept": "ช่างยนต์"
  },
  {
    "fullname": "นายสุเทพ  อินอุดม",
    "citizen_number": 1189800002623,
    "dept": "ช่างยนต์"
  },
  {
    "fullname": "นายนเรนทร์  สมสมัย",
    "citizen_number": 3180500011293,
    "dept": "ช่างยนต์"
  },
  {
    "fullname": "นายธนากรณ์  จินดารัตน์",
    "citizen_number": 3610100062694,
    "dept": "ช่างยนต์"
  },
  {
    "fullname": "ว่าที่ ร.ต.ธวัชชัย  พาดฤทธิ์",
    "citizen_number": 3450101298880,
    "dept": "ช่างยนต์"
  },
  {
    "fullname": "นายไพโรจน์  บัณฑิตย์",
    "citizen_number": 3180100533578,
    "dept": "ช่างยนต์"
  },
  {
    "fullname": "นายเอนกนัฐ  เรือนไทย",
    "citizen_number": 3601000310778,
    "dept": "ช่างยนต์"
  },
  {
    "fullname": "นายกวีศักดิ์  เทียนชัย",
    "citizen_number": 1189900076459,
    "dept": "ช่างยนต์"
  },
  {
    "fullname": "นายปรัชญา  โพธี",
    "citizen_number": 3180600135105,
    "dept": "ช่างยนต์"
  },
  {
    "fullname": "นายวิทยา ชูชื่น",
    "citizen_number": 3189900027730,
    "dept": "ช่างไฟฟ้า"
  },
  {
    "fullname": "นายธรรมนูญ  บุญปราการ",
    "citizen_number": 3449900090056,
    "dept": "ช่างไฟฟ้า"
  },
  {
    "fullname": "นายธน สังข์ทอง",
    "citizen_number": 3170300230340,
    "dept": "ช่างไฟฟ้า"
  },
  {
    "fullname": "นายสุภาษณ์  การภักดี",
    "citizen_number": 3180600140320,
    "dept": "ช่างไฟฟ้า"
  },
  {
    "fullname": "นางปราถนา  บุ้งทิม",
    "citizen_number": 3180400407233,
    "dept": "ช่างไฟฟ้า"
  },
  {
    "fullname": "นายชนิศ  ศรีเดช",
    "citizen_number": 3180600131452,
    "dept": "ช่างไฟฟ้า"
  },
  {
    "fullname": "นายสมโภชน์  ตามสายลม",
    "citizen_number": 3830100348367,
    "dept": "ช่างไฟฟ้า"
  },
  {
    "fullname": "นางสาวสุวรรณี  งามนิล",
    "citizen_number": 3100240070442,
    "dept": "ช่างไฟฟ้า"
  },
  {
    "fullname": "นายธัญวัฒน์  ทองสุก",
    "citizen_number": 3120100030941,
    "dept": "ช่างไฟฟ้า"
  },
  {
    "fullname": "นางชนันท์วัลย์  ศุภภูดิสโสภณ",
    "citizen_number": 3180100407483,
    "dept": "ช่างไฟฟ้า"
  },
  {
    "fullname": "นายอนุสรณ์  วงศ์ปิ่นจันทร์",
    "citizen_number": 2521000002383,
    "dept": "ช่างไฟฟ้า"
  },
  {
    "fullname": "นายยุทธกร  ไชยสิงห์",
    "citizen_number": 3779800216497,
    "dept": "ช่างไฟฟ้า"
  },
  {
    "fullname": "นายพีรภัทร  ฉัตรชัยวัฒนา",
    "citizen_number": 1600100339495,
    "dept": "ช่างไฟฟ้า"
  },
  {
    "fullname": "นายธนูศักดิ์  อรุณไพร",
    "citizen_number": 3450600540902,
    "dept": "ช่างอิเล็กทรอนิกส์"
  },
  {
    "fullname": "นายสุทัศน์ ศุภนคร",
    "citizen_number": 3170200101971,
    "dept": "ช่างอิเล็กทรอนิกส์"
  },
  {
    "fullname": "นายวัชระ  นิเกศรี",
    "citizen_number": 3740100531049,
    "dept": "ช่างอิเล็กทรอนิกส์"
  },
  {
    "fullname": "นายสมศักดิ์  เหมาะสมัย",
    "citizen_number": 3609700042463,
    "dept": "ช่างอิเล็กทรอนิกส์"
  },
  {
    "fullname": "นายจิรพงษ์  ทองคำรัตน์",
    "citizen_number": 3160101127964,
    "dept": "ช่างอิเล็กทรอนิกส์"
  },
  {
    "fullname": "นายศักดิ์ดา  ฉ่ำช้างทอง",
    "citizen_number": 3180100491328,
    "dept": "ช่างอิเล็กทรอนิกส์"
  },
  {
    "fullname": "นายประเสริฐศักดิ์  ศิริภาพ",
    "citizen_number": 3180200309459,
    "dept": "ช่างอิเล็กทรอนิกส์"
  },
  {
    "fullname": "นางณัฐสิมา  ตามสายลม",
    "citizen_number": 3180100024401,
    "dept": "ช่างอิเล็กทรอนิกส์"
  },
  {
    "fullname": "นางสาวภาวิณี  ปานันตา",
    "citizen_number": 3709900391479,
    "dept": "ช่างอิเล็กทรอนิกส์"
  },
  {
    "fullname": "นายฉัตรชัย  โตวราธรรม",
    "citizen_number": 1309900043427,
    "dept": "ช่างอิเล็กทรอนิกส์"
  },
  {
    "fullname": "นางวิไลวรรณ์  จันทร์จิตร",
    "citizen_number": 3180100237081,
    "dept": "ช่างอิเล็กทรอนิกส์"
  }
]
